module gitlab.com/home_life_management/light_management_morning

go 1.17

require (
	github.com/pkg/errors v0.9.1
	github.com/spf13/viper v1.10.1
	gitlab.com/home_life_management/common_lib v0.0.0-20220205115039-7619ce4a4143
	go.uber.org/zap v1.20.0
)

require (
	github.com/fsnotify/fsnotify v1.5.1 // indirect
	github.com/hashicorp/hcl v1.0.0 // indirect
	github.com/jackc/chunkreader/v2 v2.0.1 // indirect
	github.com/jackc/pgconn v1.10.1 // indirect
	github.com/jackc/pgio v1.0.0 // indirect
	github.com/jackc/pgpassfile v1.0.0 // indirect
	github.com/jackc/pgproto3/v2 v2.2.0 // indirect
	github.com/jackc/pgservicefile v0.0.0-20200714003250-2b9c44734f2b // indirect
	github.com/jackc/pgtype v1.9.1 // indirect
	github.com/jackc/pgx/v4 v4.14.1 // indirect
	github.com/jackc/puddle v1.2.1 // indirect
	github.com/kr/pretty v0.2.0 // indirect
	github.com/magiconair/properties v1.8.5 // indirect
	github.com/mitchellh/mapstructure v1.4.3 // indirect
	github.com/pelletier/go-toml v1.9.4 // indirect
	github.com/spf13/afero v1.8.1 // indirect
	github.com/spf13/cast v1.4.1 // indirect
	github.com/spf13/jwalterweatherman v1.1.0 // indirect
	github.com/spf13/pflag v1.0.5 // indirect
	github.com/subosito/gotenv v1.2.0 // indirect
	go.uber.org/atomic v1.9.0 // indirect
	go.uber.org/multierr v1.7.0 // indirect
	golang.org/x/crypto v0.0.0-20220131195533-30dcbda58838 // indirect
	golang.org/x/sys v0.0.0-20220204135822-1c1b9b1eba6a // indirect
	golang.org/x/text v0.3.7 // indirect
	gopkg.in/check.v1 v1.0.0-20190902080502-41f04d3bba15 // indirect
	gopkg.in/ini.v1 v1.66.3 // indirect
	gopkg.in/yaml.v2 v2.4.0 // indirect
)
